module github.com/NVIDIA/gpu-feature-discovery

go 1.18

require (
	github.com/NVIDIA/go-nvml v0.11.6-0.0.20220823120812-7e2082095e82
	github.com/NVIDIA/k8s-device-plugin v0.12.3-0.20221101181703-abb7275d9617
	github.com/stretchr/testify v1.7.0
	github.com/urfave/cli/v2 v2.8.1
	gitlab.com/nvidia/cloud-native/go-nvlib v0.0.0-20221121203940-a27e593595a0
)

require (
	github.com/cpuguy83/go-md2man/v2 v2.0.2 // indirect
	github.com/davecgh/go-spew v1.1.1 // indirect
	github.com/gogo/protobuf v1.3.2 // indirect
	github.com/google/gofuzz v1.2.0 // indirect
	github.com/google/uuid v1.3.0 // indirect
	github.com/json-iterator/go v1.1.12 // indirect
	github.com/modern-go/concurrent v0.0.0-20180306012644-bacd9c7ef1dd // indirect
	github.com/modern-go/reflect2 v1.0.2 // indirect
	github.com/pmezard/go-difflib v1.0.0 // indirect
	github.com/russross/blackfriday/v2 v2.1.0 // indirect
	github.com/xrash/smetrics v0.0.0-20201216005158-039620a65673 // indirect
	golang.org/x/net v0.0.0-20220615171555-694bf12d69de // indirect
	golang.org/x/text v0.3.7 // indirect
	gopkg.in/inf.v0 v0.9.1 // indirect
	gopkg.in/yaml.v2 v2.4.0 // indirect
	gopkg.in/yaml.v3 v3.0.0-20200313102051-9f266ea9e77c // indirect
	k8s.io/apimachinery v0.24.1 // indirect
	k8s.io/klog v1.0.0 // indirect
	sigs.k8s.io/structured-merge-diff/v3 v3.0.1 // indirect
	sigs.k8s.io/yaml v1.3.0 // indirect
)

replace (
	k8s.io/api => k8s.io/api v0.18.2
	k8s.io/apiextensions-apiserver => k8s.io/apiextensions-apiserver v0.18.2
	k8s.io/apimachinery => k8s.io/apimachinery v0.18.2
	k8s.io/apiserver => k8s.io/apiserver v0.18.2
	k8s.io/cli-runtime => k8s.io/cli-runtime v0.18.2
	k8s.io/client-go => k8s.io/client-go v0.18.2
	k8s.io/cloud-provider => k8s.io/cloud-provider v0.18.2
	k8s.io/cluster-bootstrap => k8s.io/cluster-bootstrap v0.18.2
	k8s.io/code-generator => k8s.io/code-generator v0.18.2
	k8s.io/component-base => k8s.io/component-base v0.18.2
	k8s.io/cri-api => k8s.io/cri-api v0.18.2
	k8s.io/csi-translation-lib => k8s.io/csi-translation-lib v0.18.2
	k8s.io/kube-aggregator => k8s.io/kube-aggregator v0.18.2
	k8s.io/kube-controller-manager => k8s.io/kube-controller-manager v0.18.2
	k8s.io/kube-proxy => k8s.io/kube-proxy v0.18.2
	k8s.io/kube-scheduler => k8s.io/kube-scheduler v0.18.2
	k8s.io/kubectl => k8s.io/kubectl v0.18.2
	k8s.io/kubelet => k8s.io/kubelet v0.18.2
	k8s.io/legacy-cloud-providers => k8s.io/legacy-cloud-providers v0.18.2
	k8s.io/metrics => k8s.io/metrics v0.18.2
	k8s.io/sample-apiserver => k8s.io/sample-apiserver v0.18.2
)
